5.10000|3.50000|1.40000|0.20000|0.00000
4.90000|3.00000|1.40000|0.20000|0.00000
4.70000|3.20000|1.30000|0.20000|0.00000
4.60000|3.10000|1.50000|0.20000|0.00000
5.00000|3.60000|1.40000|0.20000|0.00000
5.40000|3.90000|1.70000|0.40000|0.00000
4.60000|3.40000|1.40000|0.30000|0.00000
5.00000|3.40000|1.50000|0.20000|0.00000
4.40000|2.90000|1.40000|0.20000|0.00000
4.90000|3.10000|1.50000|0.10000|0.00000
5.40000|3.70000|1.50000|0.20000|0.00000
4.80000|3.40000|1.60000|0.20000|0.00000
4.80000|3.00000|1.40000|0.10000|0.00000
4.30000|3.00000|1.10000|0.10000|0.00000
5.80000|4.00000|1.20000|0.20000|0.00000
5.70000|4.40000|1.50000|0.40000|0.00000
5.40000|3.90000|1.30000|0.40000|0.00000
5.10000|3.50000|1.40000|0.30000|0.00000
5.70000|3.80000|1.70000|0.30000|0.00000
5.10000|3.80000|1.50000|0.30000|0.00000
5.40000|3.40000|1.70000|0.20000|0.00000
5.10000|3.70000|1.50000|0.40000|0.00000
4.60000|3.60000|1.00000|0.20000|0.00000
5.10000|3.30000|1.70000|0.50000|0.00000
4.80000|3.40000|1.90000|0.20000|0.00000
5.00000|3.00000|1.60000|0.20000|0.00000
5.00000|3.40000|1.60000|0.40000|0.00000
5.20000|3.50000|1.50000|0.20000|0.00000
5.20000|3.40000|1.40000|0.20000|0.00000
4.70000|3.20000|1.60000|0.20000|0.00000
4.80000|3.10000|1.60000|0.20000|0.00000
5.40000|3.40000|1.50000|0.40000|0.00000
5.20000|4.10000|1.50000|0.10000|0.00000
5.50000|4.20000|1.40000|0.20000|0.00000
4.90000|3.10000|1.50000|0.10000|0.00000
5.00000|3.20000|1.20000|0.20000|0.00000
5.50000|3.50000|1.30000|0.20000|0.00000
4.90000|3.10000|1.50000|0.10000|0.00000
4.40000|3.00000|1.30000|0.20000|0.00000
5.10000|3.40000|1.50000|0.20000|0.00000
5.00000|3.50000|1.30000|0.30000|0.00000
4.50000|2.30000|1.30000|0.30000|0.00000
4.40000|3.20000|1.30000|0.20000|0.00000
5.00000|3.50000|1.60000|0.60000|0.00000
5.10000|3.80000|1.90000|0.40000|0.00000
4.80000|3.00000|1.40000|0.30000|0.00000
5.10000|3.80000|1.60000|0.20000|0.00000
4.60000|3.20000|1.40000|0.20000|0.00000
5.30000|3.70000|1.50000|0.20000|0.00000
5.00000|3.30000|1.40000|0.20000|0.00000
7.00000|3.20000|4.70000|1.40000|1.00000
6.40000|3.20000|4.50000|1.50000|1.00000
6.90000|3.10000|4.90000|1.50000|1.00000
5.50000|2.30000|4.00000|1.30000|1.00000
6.50000|2.80000|4.60000|1.50000|1.00000
5.70000|2.80000|4.50000|1.30000|1.00000
6.30000|3.30000|4.70000|1.60000|1.00000
4.90000|2.40000|3.30000|1.00000|1.00000
6.60000|2.90000|4.60000|1.30000|1.00000
5.20000|2.70000|3.90000|1.40000|1.00000
5.00000|2.00000|3.50000|1.00000|1.00000
5.90000|3.00000|4.20000|1.50000|1.00000
6.00000|2.20000|4.00000|1.00000|1.00000
6.10000|2.90000|4.70000|1.40000|1.00000
5.60000|2.90000|3.60000|1.30000|1.00000
6.70000|3.10000|4.40000|1.40000|1.00000
5.60000|3.00000|4.50000|1.50000|1.00000
5.80000|2.70000|4.10000|1.00000|1.00000
6.20000|2.20000|4.50000|1.50000|1.00000
5.60000|2.50000|3.90000|1.10000|1.00000
5.90000|3.20000|4.80000|1.80000|1.00000
6.10000|2.80000|4.00000|1.30000|1.00000
6.30000|2.50000|4.90000|1.50000|1.00000
6.10000|2.80000|4.70000|1.20000|1.00000
6.40000|2.90000|4.30000|1.30000|1.00000
6.60000|3.00000|4.40000|1.40000|1.00000
6.80000|2.80000|4.80000|1.40000|1.00000
6.70000|3.00000|5.00000|1.70000|1.00000
6.00000|2.90000|4.50000|1.50000|1.00000
5.70000|2.60000|3.50000|1.00000|1.00000
5.50000|2.40000|3.80000|1.10000|1.00000
5.50000|2.40000|3.70000|1.00000|1.00000
5.80000|2.70000|3.90000|1.20000|1.00000
6.00000|2.70000|5.10000|1.60000|1.00000
5.40000|3.00000|4.50000|1.50000|1.00000
6.00000|3.40000|4.50000|1.60000|1.00000
6.70000|3.10000|4.70000|1.50000|1.00000
6.30000|2.30000|4.40000|1.30000|1.00000
5.60000|3.00000|4.10000|1.30000|1.00000
5.50000|2.50000|4.00000|1.30000|1.00000
5.50000|2.60000|4.40000|1.20000|1.00000
6.10000|3.00000|4.60000|1.40000|1.00000
5.80000|2.60000|4.00000|1.20000|1.00000
5.00000|2.30000|3.30000|1.00000|1.00000
5.60000|2.70000|4.20000|1.30000|1.00000
5.70000|3.00000|4.20000|1.20000|1.00000
5.70000|2.90000|4.20000|1.30000|1.00000
6.20000|2.90000|4.30000|1.30000|1.00000
5.10000|2.50000|3.00000|1.10000|1.00000
5.70000|2.80000|4.10000|1.30000|1.00000
6.30000|3.30000|6.00000|2.50000|2.00000
5.80000|2.70000|5.10000|1.90000|2.00000
7.10000|3.00000|5.90000|2.10000|2.00000
6.30000|2.90000|5.60000|1.80000|2.00000
6.50000|3.00000|5.80000|2.20000|2.00000
7.60000|3.00000|6.60000|2.10000|2.00000
4.90000|2.50000|4.50000|1.70000|2.00000
7.30000|2.90000|6.30000|1.80000|2.00000
6.70000|2.50000|5.80000|1.80000|2.00000
7.20000|3.60000|6.10000|2.50000|2.00000
6.50000|3.20000|5.10000|2.00000|2.00000
6.40000|2.70000|5.30000|1.90000|2.00000
6.80000|3.00000|5.50000|2.10000|2.00000
5.70000|2.50000|5.00000|2.00000|2.00000
5.80000|2.80000|5.10000|2.40000|2.00000
6.40000|3.20000|5.30000|2.30000|2.00000
6.50000|3.00000|5.50000|1.80000|2.00000
7.70000|3.80000|6.70000|2.20000|2.00000
7.70000|2.60000|6.90000|2.30000|2.00000
6.00000|2.20000|5.00000|1.50000|2.00000
6.90000|3.20000|5.70000|2.30000|2.00000
5.60000|2.80000|4.90000|2.00000|2.00000
7.70000|2.80000|6.70000|2.00000|2.00000
6.30000|2.70000|4.90000|1.80000|2.00000
6.70000|3.30000|5.70000|2.10000|2.00000
